Name,Alt,Weight,Mass,Base AL,Coverage
Helm,,,,300,Head
Mask,,,,50,Head
Hat,,,,50,Head
Breastplate,,,,300,Chest
Sleeves,,,,300,Lower Arms&Upper Arms
Coat,,,,300,Lower Arms&Upper Arms&Chest
Gloves,,,,50,Hands
Gauntlets,,,,300,Hands
Pants,,,,50,Upper Legs&Lower Legs
Leggings,,,,300,Upper Legs&Lower Legs
Shoes,,,,50,Feet
Boots,,,,300,Feet
Sandals,,,,10,Feet
