Name,Alt,Weight,Burden
Mistletoe,Viscus Album,,
Vervain,Verbena officinalis,,
Dill,,,
Valerian,,,
Yarrow,,,
Hemp,,,
Mugwort,,,
Sweetgrass,,,
White Sage,,,
River Mint,,,
Wattle,,,
Eucalyptus,,,
Myrrh,,,
Frankincense,,,
Betony,,,
Cress,,,
Plantain,,,
Mayweed,,,
Nettle,,,
Crab-apple,,,
Thyme,,,
Fennel,,,
